Run your Pipeline
…
# expand the pipeline
expanded_pipeline <- expand_decisions(full_pipeline)

# Run the multiverse
multiverse_results <- run_multiverse(expanded_pipeline)

multiverse_results
#> # A tibble: 48 × 4
#>    decision specifications   model_fitted     pipeline_code   
#>    <chr>    <list>           <list>           <list>          
#>  1 1        <tibble [1 × 3]> <tibble [1 × 5]> <tibble [1 × 2]>
#>  2 2        <tibble [1 × 3]> <tibble [1 × 5]> <tibble [1 × 2]>
#>  3 3        <tibble [1 × 3]> <tibble [1 × 5]> <tibble [1 × 2]>
#>  4 4        <tibble [1 × 3]> <tibble [1 × 5]> <tibble [1 × 2]>
#>  5 5        <tibble [1 × 3]> <tibble [1 × 5]> <tibble [1 × 2]>
#>  6 6        <tibble [1 × 3]> <tibble [1 × 5]> <tibble [1 × 2]>
#>  7 7        <tibble [1 × 3]> <tibble [1 × 5]> <tibble [1 × 2]>
#>  8 8        <tibble [1 × 3]> <tibble [1 × 5]> <tibble [1 × 2]>
#>  9 9        <tibble [1 × 3]> <tibble [1 × 5]> <tibble [1 × 2]>
#> 10 10       <tibble [1 × 3]> <tibble [1 × 5]> <tibble [1 × 2]>
#> # ℹ 38 more rows
…
Unpacking a multiverse analysis

There are two main ways to unpack and examine multitool
results. The first is by using tidyr::unnest().

Unnest

Inside the model_fitted column, multitool
gives us 4 columns: model_parameters,
model_performance, model_warnings, and
model_messages.

multiverse_results |> unnest(model_fitted)
#> # A tibble: 48 × 8
#>    decision specifications   model_function model_parameters   model_performance
#>    <chr>    <list>           <chr>          <list>             <list>           
#>  1 1        <tibble [1 × 3]> lm             <prmtrs_m [4 × 9]> <prfrmnc_>       
#>  2 2        <tibble [1 × 3]> lm             <prmtrs_m [4 × 9]> <prfrmnc_>       
#>  3 3        <tibble [1 × 3]> lm             <prmtrs_m [4 × 9]> <prfrmnc_>       
#>  4 4        <tibble [1 × 3]> lm             <prmtrs_m [4 × 9]> <prfrmnc_>       
#>  5 5        <tibble [1 × 3]> lm             <prmtrs_m [4 × 9]> <prfrmnc_>       
#>  6 6        <tibble [1 × 3]> lm             <prmtrs_m [4 × 9]> <prfrmnc_>       
#>  7 7        <tibble [1 × 3]> lm             <prmtrs_m [4 × 9]> <prfrmnc_>       
#>  8 8        <tibble [1 × 3]> lm             <prmtrs_m [4 × 9]> <prfrmnc_>       
#>  9 9        <tibble [1 × 3]> lm             <prmtrs_m [4 × 9]> <prfrmnc_>       
#> 10 10       <tibble [1 × 3]> lm             <prmtrs_m [4 × 9]> <prfrmnc_>       
#> # ℹ 38 more rows
#> # ℹ 3 more variables: model_warnings <list>, model_messages <list>,
#> #   pipeline_code <list>

The model_parameters column gives you the result of
calling parameters::parameters() on each model in your
grid, which is a data.frame of model coefficients and their
associated standard errors, confidence intervals, test statistic, and
p-values.

multiverse_results |> 
  unnest(model_fitted) |> 
  unnest(model_parameters)
#> # A tibble: 192 × 16
#>    decision specifications   model_function parameter   coefficient     se    ci
#>    <chr>    <list>           <chr>          <chr>             <dbl>  <dbl> <dbl>
#>  1 1        <tibble [1 × 3]> lm             (Intercept)     0.140   0.0613  0.95
#>  2 1        <tibble [1 × 3]> lm             iv1            -0.00984 0.0607  0.95
#>  3 1        <tibble [1 × 3]> lm             mod             0.0864  0.0612  0.95
#>  4 1        <tibble [1 × 3]> lm             iv1:mod         0.0847  0.0655  0.95
#>  5 2        <tibble [1 × 3]> lm             (Intercept)    -0.0763  0.0605  0.95
#>  6 2        <tibble [1 × 3]> lm             iv1            -0.0698  0.0599  0.95
#>  7 2        <tibble [1 × 3]> lm             mod            -0.0474  0.0604  0.95
#>  8 2        <tibble [1 × 3]> lm             iv1:mod        -0.0651  0.0646  0.95
#>  9 3        <tibble [1 × 3]> lm             (Intercept)     0.143   0.0611  0.95
#> 10 3        <tibble [1 × 3]> lm             iv2             0.0368  0.0590  0.95
#> # ℹ 182 more rows
#> # ℹ 9 more variables: ci_low <dbl>, ci_high <dbl>, t <dbl>, df_error <int>,
#> #   p <dbl>, model_performance <list>, model_warnings <list>,
#> #   model_messages <list>, pipeline_code <list>

The model_performance column gives fit statistics, such
as r2 or AIC and BIC values, computed by running
performance::performance() on each model in your grid.

multiverse_results |> 
  unnest(model_fitted) |>
  unnest(model_performance)
#> # A tibble: 48 × 14
#>    decision specifications   model_function model_parameters     aic  aicc   bic
#>    <chr>    <list>           <chr>          <list>             <dbl> <dbl> <dbl>
#>  1 1        <tibble [1 × 3]> lm             <prmtrs_m [4 × 9]>  838.  839.  857.
#>  2 2        <tibble [1 × 3]> lm             <prmtrs_m [4 × 9]>  831.  831.  849.
#>  3 3        <tibble [1 × 3]> lm             <prmtrs_m [4 × 9]>  840.  840.  858.
#>  4 4        <tibble [1 × 3]> lm             <prmtrs_m [4 × 9]>  832.  832.  851.
#>  5 5        <tibble [1 × 3]> lm             <prmtrs_m [4 × 9]>  834.  835.  853.
#>  6 6        <tibble [1 × 3]> lm             <prmtrs_m [4 × 9]>  832.  832.  851.
#>  7 7        <tibble [1 × 3]> lm             <prmtrs_m [4 × 9]>  838.  839.  857.
#>  8 8        <tibble [1 × 3]> lm             <prmtrs_m [4 × 9]>  831.  831.  849.
#>  9 9        <tibble [1 × 3]> lm             <prmtrs_m [4 × 9]>  840.  840.  858.
#> 10 10       <tibble [1 × 3]> lm             <prmtrs_m [4 × 9]>  832.  832.  851.
#> # ℹ 38 more rows
#> # ℹ 7 more variables: r2 <dbl>, r2_adjusted <dbl>, rmse <dbl>, sigma <dbl>,
#> #   model_warnings <list>, model_messages <list>, pipeline_code <list>
…
Reveal

I wrote wrappers around the tidyr::unnest() workflow.
The main function is reveal(). Pass a multiverse results
object to reveal() and tell it which columns to grab by
indicating the column name in the .what argument:

multiverse_results |> 
  reveal(.what = model_fitted)
#> # A tibble: 48 × 8
#>    decision specifications   model_function model_parameters   model_performance
#>    <chr>    <list>           <chr>          <list>             <list>           
#>  1 1        <tibble [1 × 3]> lm             <prmtrs_m [4 × 9]> <prfrmnc_>       
#>  2 2        <tibble [1 × 3]> lm             <prmtrs_m [4 × 9]> <prfrmnc_>       
#>  3 3        <tibble [1 × 3]> lm             <prmtrs_m [4 × 9]> <prfrmnc_>       
#>  4 4        <tibble [1 × 3]> lm             <prmtrs_m [4 × 9]> <prfrmnc_>       
#>  5 5        <tibble [1 × 3]> lm             <prmtrs_m [4 × 9]> <prfrmnc_>       
#>  6 6        <tibble [1 × 3]> lm             <prmtrs_m [4 × 9]> <prfrmnc_>       
#>  7 7        <tibble [1 × 3]> lm             <prmtrs_m [4 × 9]> <prfrmnc_>       
#>  8 8        <tibble [1 × 3]> lm             <prmtrs_m [4 × 9]> <prfrmnc_>       
#>  9 9        <tibble [1 × 3]> lm             <prmtrs_m [4 × 9]> <prfrmnc_>       
#> 10 10       <tibble [1 × 3]> lm             <prmtrs_m [4 × 9]> <prfrmnc_>       
#> # ℹ 38 more rows
#> # ℹ 3 more variables: model_warnings <list>, model_messages <list>,
#> #   pipeline_code <list>

If you want to get straight to a specific result you can specify a
sub-list with the .which argument:

multiverse_results |> 
  reveal(.what = model_fitted, .which = model_parameters)
#> # A tibble: 192 × 16
#>    decision specifications   model_function parameter   coefficient     se    ci
#>    <chr>    <list>           <chr>          <chr>             <dbl>  <dbl> <dbl>
#>  1 1        <tibble [1 × 3]> lm             (Intercept)     0.140   0.0613  0.95
#>  2 1        <tibble [1 × 3]> lm             iv1            -0.00984 0.0607  0.95
#>  3 1        <tibble [1 × 3]> lm             mod             0.0864  0.0612  0.95
#>  4 1        <tibble [1 × 3]> lm             iv1:mod         0.0847  0.0655  0.95
#>  5 2        <tibble [1 × 3]> lm             (Intercept)    -0.0763  0.0605  0.95
#>  6 2        <tibble [1 × 3]> lm             iv1            -0.0698  0.0599  0.95
#>  7 2        <tibble [1 × 3]> lm             mod            -0.0474  0.0604  0.95
#>  8 2        <tibble [1 × 3]> lm             iv1:mod        -0.0651  0.0646  0.95
#>  9 3        <tibble [1 × 3]> lm             (Intercept)     0.143   0.0611  0.95
#> 10 3        <tibble [1 × 3]> lm             iv2             0.0368  0.0590  0.95
#> # ℹ 182 more rows
#> # ℹ 9 more variables: ci_low <dbl>, ci_high <dbl>, t <dbl>, df_error <int>,
#> #   p <dbl>, model_performance <list>, model_warnings <list>,
#> #   model_messages <list>, pipeline_code <list>
…
multitool will run and save anything you put in your
pipeline but most often, you will want to look at model parameters
and/or performance. To that end, there are a set of convenience
functions for getting at the most common multiverse results:
reveal_model_parameters,
reveal_model_performance,
reveal_model_messages, and
reveal_model_warnings.

reveal_model_parameters unpacks the model parameters in
your multiverse:

multiverse_results |> 
  reveal_model_parameters()
#> # A tibble: 192 × 16
#>    decision specifications   model_function parameter   coefficient     se    ci
#>    <chr>    <list>           <chr>          <chr>             <dbl>  <dbl> <dbl>
#>  1 1        <tibble [1 × 3]> lm             (Intercept)     0.140   0.0613  0.95
#>  2 1        <tibble [1 × 3]> lm             iv1            -0.00984 0.0607  0.95
#>  3 1        <tibble [1 × 3]> lm             mod             0.0864  0.0612  0.95
#>  4 1        <tibble [1 × 3]> lm             iv1:mod         0.0847  0.0655  0.95
#>  5 2        <tibble [1 × 3]> lm             (Intercept)    -0.0763  0.0605  0.95
#>  6 2        <tibble [1 × 3]> lm             iv1            -0.0698  0.0599  0.95
#>  7 2        <tibble [1 × 3]> lm             mod            -0.0474  0.0604  0.95
#>  8 2        <tibble [1 × 3]> lm             iv1:mod        -0.0651  0.0646  0.95
#>  9 3        <tibble [1 × 3]> lm             (Intercept)     0.143   0.0611  0.95
#> 10 3        <tibble [1 × 3]> lm             iv2             0.0368  0.0590  0.95
#> # ℹ 182 more rows
#> # ℹ 9 more variables: ci_low <dbl>, ci_high <dbl>, t <dbl>, df_error <int>,
#> #   p <dbl>, model_performance <list>, model_warnings <list>,
#> #   model_messages <list>, pipeline_code <list>

reveal_model_performance unpacks the model
performance:

multiverse_results |> 
  reveal_model_performance()
#> # A tibble: 48 × 14
#>    decision specifications   model_function model_parameters     aic  aicc   bic
#>    <chr>    <list>           <chr>          <list>             <dbl> <dbl> <dbl>
#>  1 1        <tibble [1 × 3]> lm             <prmtrs_m [4 × 9]>  838.  839.  857.
#>  2 2        <tibble [1 × 3]> lm             <prmtrs_m [4 × 9]>  831.  831.  849.
#>  3 3        <tibble [1 × 3]> lm             <prmtrs_m [4 × 9]>  840.  840.  858.
#>  4 4        <tibble [1 × 3]> lm             <prmtrs_m [4 × 9]>  832.  832.  851.
#>  5 5        <tibble [1 × 3]> lm             <prmtrs_m [4 × 9]>  834.  835.  853.
#>  6 6        <tibble [1 × 3]> lm             <prmtrs_m [4 × 9]>  832.  832.  851.
#>  7 7        <tibble [1 × 3]> lm             <prmtrs_m [4 × 9]>  838.  839.  857.
#>  8 8        <tibble [1 × 3]> lm             <prmtrs_m [4 × 9]>  831.  831.  849.
#>  9 9        <tibble [1 × 3]> lm             <prmtrs_m [4 × 9]>  840.  840.  858.
#> 10 10       <tibble [1 × 3]> lm             <prmtrs_m [4 × 9]>  832.  832.  851.
#> # ℹ 38 more rows
#> # ℹ 7 more variables: r2 <dbl>, r2_adjusted <dbl>, rmse <dbl>, sigma <dbl>,
#> #   model_warnings <list>, model_messages <list>, pipeline_code <list>

Unpacking Specifications

You can also choose to expand your decision grid with
.unpack_specs to see which decisions produced what result.
You have two options for unpacking your decisions - wide or
long. If you set .unpack_specs = 'wide', you
get one column per decion variable. This is exactly the same as how your
decisions appeared in your grid.

multiverse_results |> 
  reveal_model_parameters(.unpack_specs = "wide")
#> # A tibble: 192 × 22
#>    decision ivs   dvs   include1      include2      include3    model model_meta
#>    <chr>    <chr> <chr> <chr>         <chr>         <chr>       <chr> <chr>     
#>  1 1        iv1   dv1   include1 == 0 include2 != 3 include3 >… lm(d… linear mo…
#>  2 1        iv1   dv1   include1 == 0 include2 != 3 include3 >… lm(d… linear mo…
#>  3 1        iv1   dv1   include1 == 0 include2 != 3 include3 >… lm(d… linear mo…
#>  4 1        iv1   dv1   include1 == 0 include2 != 3 include3 >… lm(d… linear mo…
#>  5 2        iv1   dv2   include1 == 0 include2 != 3 include3 >… lm(d… linear mo…
#>  6 2        iv1   dv2   include1 == 0 include2 != 3 include3 >… lm(d… linear mo…
#>  7 2        iv1   dv2   include1 == 0 include2 != 3 include3 >… lm(d… linear mo…
#>  8 2        iv1   dv2   include1 == 0 include2 != 3 include3 >… lm(d… linear mo…
#>  9 3        iv2   dv1   include1 == 0 include2 != 3 include3 >… lm(d… linear mo…
#> 10 3        iv2   dv1   include1 == 0 include2 != 3 include3 >… lm(d… linear mo…
#> # ℹ 182 more rows
#> # ℹ 14 more variables: model_function <chr>, parameter <chr>,
#> #   coefficient <dbl>, se <dbl>, ci <dbl>, ci_low <dbl>, ci_high <dbl>,
#> #   t <dbl>, df_error <int>, p <dbl>, model_performance <list>,
#> #   model_warnings <list>, model_messages <list>, pipeline_code <list>

If you set .unpack_specs = 'long', your decisions get
stacked into two columns: decision_set and
alternatives. This format is nice for plotting a particular
result from a multiverse analyses per different decision
alternatives.

multiverse_results |> 
  reveal_model_performance(.unpack_specs = "long")
#> # A tibble: 288 × 15
#>    decision decision_set alternatives    model_function model_parameters     aic
#>    <chr>    <chr>        <chr>           <chr>          <list>             <dbl>
#>  1 1        ivs          iv1             lm             <prmtrs_m [4 × 9]>  838.
#>  2 1        dvs          dv1             lm             <prmtrs_m [4 × 9]>  838.
#>  3 1        include1     include1 == 0   lm             <prmtrs_m [4 × 9]>  838.
#>  4 1        include2     include2 != 3   lm             <prmtrs_m [4 × 9]>  838.
#>  5 1        include3     include3 > -2.5 lm             <prmtrs_m [4 × 9]>  838.
#>  6 1        model        linear model    lm             <prmtrs_m [4 × 9]>  838.
#>  7 2        ivs          iv1             lm             <prmtrs_m [4 × 9]>  831.
#>  8 2        dvs          dv2             lm             <prmtrs_m [4 × 9]>  831.
#>  9 2        include1     include1 == 0   lm             <prmtrs_m [4 × 9]>  831.
#> 10 2        include2     include2 != 3   lm             <prmtrs_m [4 × 9]>  831.
#> # ℹ 278 more rows
#> # ℹ 9 more variables: aicc <dbl>, bic <dbl>, r2 <dbl>, r2_adjusted <dbl>,
#> #   rmse <dbl>, sigma <dbl>, model_warnings <list>, model_messages <list>,
#> #   pipeline_code <list>
…
